{
  "project_info": {
    "project_number": "992888280671",
    "firebase_url": "https://helpcaller-dbde6.firebaseio.com",
    "project_id": "helpcaller-dbde6",
    "storage_bucket": "helpcaller-dbde6.appspot.com"
  },
  "client": [
    {
      "client_info": {
        "mobilesdk_app_id": "1:992888280671:android:c326e162c22e15c3",
        "android_client_info": {
          "package_name": "com.kkm.www.helpcaller"
        }
      },
      "oauth_client": [
        {
          "client_id": "992888280671-4eqsmd0d6os76a40i505jhdu609l8roh.apps.googleusercontent.com",
          "client_type": 1,
          "android_info": {
            "package_name": "com.kkm.www.helpcaller",
            "certificate_hash": "c361d54e55b0b333ef2d8c1f8c2c8b591f82eecb"
          }
        },
        {
          "client_id": "992888280671-1rkit6sl3lg5cnr10etf20m8l11douj6.apps.googleusercontent.com",
          "client_type": 3
        }
      ],
      "api_key": [
        {
          "current_key": "AIzaSyCNk3_CwkVPlPVNvcMZkJI7YfR9pNDflQk"
        }
      ],
      "services": {
        "analytics_service": {
          "status": 1
        },
        "appinvite_service": {
          "status": 2,
          "other_platform_oauth_client": [
            {
              "client_id": "992888280671-1rkit6sl3lg5cnr10etf20m8l11douj6.apps.googleusercontent.com",
              "client_type": 3
            }
          ]
        },
        "ads_service": {
          "status": 2
        }
      }
    }
  ],
  "configuration_version": "1"
}